Version: 1.4
Global
	ProjectRoot:	.
	Target:	iTasks
	Exec:	{Project}/assignment6
	CodeGen
		CheckStacks:	False
		CheckIndexes:	True
	Application
		HeapSize:	167772160
		StackSize:	1048576
		ExtraMemory:	81920
		IntialHeapSize:	204800
		HeapSizeMultiplier:	4096
		ShowExecutionTime:	False
		ShowGC:	False
		ShowStackSize:	False
		MarkingCollector:	False
		DisableRTSFlags:	False
		StandardRuntimeEnv:	True
		Profile
			Memory:	False
			MemoryMinimumHeapSize:	0
			Time:	False
			Stack:	False
			Dynamics:	True
			DescExL:	False
		Output
			Output:	ShowConstructors
			Font:	Monaco
			FontSize:	9
			WriteStdErr:	False
	Link
		LinkMethod:	Static
		GenerateRelocations:	False
		GenerateSymbolTable:	False
		GenerateLinkMap:	False
		LinkResources:	False
		ResourceSource:	
		GenerateDLL:	False
		ExportedNames:	
	Paths
		Path:	{Project}
	Precompile:	
	Postlink:	
MainModule
	Name:	assignment6
	Dir:	{Project}
	Compiler
		NeverMemoryProfile:	False
		NeverTimeProfile:	False
		StrictnessAnalysis:	True
		ListTypes:	StrictExportTypes
		ListAttributes:	True
		Warnings:	True
		Verbose:	True
		ReadableABC:	False
		ReuseUniqueNodes:	True
		Fusion:	False
OtherModules
	Module
		Name:	StdDynamic
		Dir:	{Application}/lib/Dynamics
		Compiler
			NeverMemoryProfile:	False
			NeverTimeProfile:	False
			StrictnessAnalysis:	True
			ListTypes:	StrictExportTypes
			ListAttributes:	True
			Warnings:	True
			Verbose:	True
			ReadableABC:	False
			ReuseUniqueNodes:	True
			Fusion:	False
	Module
		Name:	_SystemDynamic
		Dir:	{Application}/lib/Dynamics
		Compiler
			NeverMemoryProfile:	False
			NeverTimeProfile:	False
			StrictnessAnalysis:	True
			ListTypes:	StrictExportTypes
			ListAttributes:	True
			Warnings:	True
			Verbose:	True
			ReadableABC:	False
			ReuseUniqueNodes:	True
			Fusion:	False
	Module
		Name:	GenEq
		Dir:	{Application}/lib/Generics
		Compiler
			NeverMemoryProfile:	False
			NeverTimeProfile:	False
			StrictnessAnalysis:	True
			ListTypes:	StrictExportTypes
			ListAttributes:	True
			Warnings:	True
			Verbose:	True
			ReadableABC:	False
			ReuseUniqueNodes:	True
			Fusion:	False
	Module
		Name:	GenLexOrd
		Dir:	{Application}/lib/Generics
		Compiler
			NeverMemoryProfile:	False
			NeverTimeProfile:	False
			StrictnessAnalysis:	True
			ListTypes:	StrictExportTypes
			ListAttributes:	True
			Warnings:	True
			Verbose:	True
			ReadableABC:	False
			ReuseUniqueNodes:	True
			Fusion:	False
	Module
		Name:	dynamic_string
		Dir:	{Application}/lib/GraphCopy
		Compiler
			NeverMemoryProfile:	False
			NeverTimeProfile:	False
			StrictnessAnalysis:	True
			ListTypes:	StrictExportTypes
			ListAttributes:	True
			Warnings:	True
			Verbose:	True
			ReadableABC:	False
			ReuseUniqueNodes:	True
			Fusion:	False
		NeededObjFiles
			ObjectFile:	copy_string_to_graph.
			ObjectFile:	copy_string_to_graph_interface.
			ObjectFile:	copy_graph_to_string.
			ObjectFile:	copy_graph_to_string_interface.
	Module
		Name:	graph_to_sapl_string
		Dir:	{Application}/lib/GraphCopy
		Compiler
			NeverMemoryProfile:	False
			NeverTimeProfile:	False
			StrictnessAnalysis:	True
			ListTypes:	StrictExportTypes
			ListAttributes:	True
			Warnings:	True
			Verbose:	True
			ReadableABC:	False
			ReuseUniqueNodes:	True
			Fusion:	False
	Module
		Name:	graph_to_string_and_descriptors
		Dir:	{Application}/lib/GraphCopy
		Compiler
			NeverMemoryProfile:	False
			NeverTimeProfile:	False
			StrictnessAnalysis:	True
			ListTypes:	StrictExportTypes
			ListAttributes:	True
			Warnings:	True
			Verbose:	True
			ReadableABC:	False
			ReuseUniqueNodes:	True
			Fusion:	False
		NeededObjFiles
			ObjectFile:	copy_graph_to_string.
			ObjectFile:	copy_graph_to_string_interface.
	Module
		Name:	Control.Applicative
		Dir:	{Application}/lib/Platform
		Compiler
			NeverMemoryProfile:	False
			NeverTimeProfile:	False
			StrictnessAnalysis:	True
			ListTypes:	StrictExportTypes
			ListAttributes:	True
			Warnings:	True
			Verbose:	True
			ReadableABC:	False
			ReuseUniqueNodes:	True
			Fusion:	False
	Module
		Name:	Control.Monad
		Dir:	{Application}/lib/Platform
		Compiler
			NeverMemoryProfile:	False
			NeverTimeProfile:	False
			StrictnessAnalysis:	True
			ListTypes:	StrictExportTypes
			ListAttributes:	True
			Warnings:	True
			Verbose:	True
			ReadableABC:	False
			ReuseUniqueNodes:	True
			Fusion:	False
	Module
		Name:	Crypto.Hash.SHA1
		Dir:	{Application}/lib/Platform
		Compiler
			NeverMemoryProfile:	False
			NeverTimeProfile:	False
			StrictnessAnalysis:	True
			ListTypes:	StrictExportTypes
			ListAttributes:	True
			Warnings:	True
			Verbose:	True
			ReadableABC:	False
			ReuseUniqueNodes:	True
			Fusion:	False
	Module
		Name:	Data.Array
		Dir:	{Application}/lib/Platform
		Compiler
			NeverMemoryProfile:	False
			NeverTimeProfile:	False
			StrictnessAnalysis:	True
			ListTypes:	StrictExportTypes
			ListAttributes:	True
			Warnings:	True
			Verbose:	True
			ReadableABC:	False
			ReuseUniqueNodes:	True
			Fusion:	False
	Module
		Name:	Data.CircularStack
		Dir:	{Application}/lib/Platform
		Compiler
			NeverMemoryProfile:	False
			NeverTimeProfile:	False
			StrictnessAnalysis:	True
			ListTypes:	StrictExportTypes
			ListAttributes:	True
			Warnings:	True
			Verbose:	True
			ReadableABC:	False
			ReuseUniqueNodes:	True
			Fusion:	False
	Module
		Name:	Data.Either
		Dir:	{Application}/lib/Platform
		Compiler
			NeverMemoryProfile:	False
			NeverTimeProfile:	False
			StrictnessAnalysis:	True
			ListTypes:	StrictExportTypes
			ListAttributes:	True
			Warnings:	True
			Verbose:	True
			ReadableABC:	False
			ReuseUniqueNodes:	True
			Fusion:	False
	Module
		Name:	Data.Error
		Dir:	{Application}/lib/Platform
		Compiler
			NeverMemoryProfile:	False
			NeverTimeProfile:	False
			StrictnessAnalysis:	True
			ListTypes:	StrictExportTypes
			ListAttributes:	True
			Warnings:	True
			Verbose:	True
			ReadableABC:	False
			ReuseUniqueNodes:	True
			Fusion:	False
	Module
		Name:	Data.Foldable
		Dir:	{Application}/lib/Platform
		Compiler
			NeverMemoryProfile:	False
			NeverTimeProfile:	False
			StrictnessAnalysis:	True
			ListTypes:	StrictExportTypes
			ListAttributes:	True
			Warnings:	True
			Verbose:	True
			ReadableABC:	False
			ReuseUniqueNodes:	True
			Fusion:	False
	Module
		Name:	Data.Func
		Dir:	{Application}/lib/Platform
		Compiler
			NeverMemoryProfile:	False
			NeverTimeProfile:	False
			StrictnessAnalysis:	True
			ListTypes:	StrictExportTypes
			ListAttributes:	True
			Warnings:	True
			Verbose:	True
			ReadableABC:	False
			ReuseUniqueNodes:	True
			Fusion:	False
	Module
		Name:	Data.Functor
		Dir:	{Application}/lib/Platform
		Compiler
			NeverMemoryProfile:	False
			NeverTimeProfile:	False
			StrictnessAnalysis:	True
			ListTypes:	StrictExportTypes
			ListAttributes:	True
			Warnings:	True
			Verbose:	True
			ReadableABC:	False
			ReuseUniqueNodes:	True
			Fusion:	False
	Module
		Name:	Data.IntMap.Base
		Dir:	{Application}/lib/Platform
		Compiler
			NeverMemoryProfile:	False
			NeverTimeProfile:	False
			StrictnessAnalysis:	True
			ListTypes:	StrictExportTypes
			ListAttributes:	True
			Warnings:	True
			Verbose:	True
			ReadableABC:	False
			ReuseUniqueNodes:	True
			Fusion:	False
	Module
		Name:	Data.IntMap.Strict
		Dir:	{Application}/lib/Platform
		Compiler
			NeverMemoryProfile:	False
			NeverTimeProfile:	False
			StrictnessAnalysis:	True
			ListTypes:	StrictExportTypes
			ListAttributes:	True
			Warnings:	True
			Verbose:	True
			ReadableABC:	False
			ReuseUniqueNodes:	True
			Fusion:	False
	Module
		Name:	Data.List
		Dir:	{Application}/lib/Platform
		Compiler
			NeverMemoryProfile:	False
			NeverTimeProfile:	False
			StrictnessAnalysis:	True
			ListTypes:	StrictExportTypes
			ListAttributes:	True
			Warnings:	True
			Verbose:	True
			ReadableABC:	False
			ReuseUniqueNodes:	True
			Fusion:	False
	Module
		Name:	Data.Map
		Dir:	{Application}/lib/Platform
		Compiler
			NeverMemoryProfile:	False
			NeverTimeProfile:	False
			StrictnessAnalysis:	True
			ListTypes:	StrictExportTypes
			ListAttributes:	True
			Warnings:	True
			Verbose:	True
			ReadableABC:	False
			ReuseUniqueNodes:	True
			Fusion:	False
	Module
		Name:	Data.Matrix
		Dir:	{Application}/lib/Platform
		Compiler
			NeverMemoryProfile:	False
			NeverTimeProfile:	False
			StrictnessAnalysis:	True
			ListTypes:	StrictExportTypes
			ListAttributes:	True
			Warnings:	True
			Verbose:	True
			ReadableABC:	False
			ReuseUniqueNodes:	True
			Fusion:	False
	Module
		Name:	Data.Maybe
		Dir:	{Application}/lib/Platform
		Compiler
			NeverMemoryProfile:	False
			NeverTimeProfile:	False
			StrictnessAnalysis:	True
			ListTypes:	StrictExportTypes
			ListAttributes:	True
			Warnings:	True
			Verbose:	True
			ReadableABC:	False
			ReuseUniqueNodes:	True
			Fusion:	False
	Module
		Name:	Data.Monoid
		Dir:	{Application}/lib/Platform
		Compiler
			NeverMemoryProfile:	False
			NeverTimeProfile:	False
			StrictnessAnalysis:	True
			ListTypes:	StrictExportTypes
			ListAttributes:	True
			Warnings:	True
			Verbose:	True
			ReadableABC:	False
			ReuseUniqueNodes:	True
			Fusion:	False
	Module
		Name:	Data.Queue
		Dir:	{Application}/lib/Platform
		Compiler
			NeverMemoryProfile:	False
			NeverTimeProfile:	False
			StrictnessAnalysis:	True
			ListTypes:	StrictExportTypes
			ListAttributes:	True
			Warnings:	True
			Verbose:	True
			ReadableABC:	False
			ReuseUniqueNodes:	True
			Fusion:	False
	Module
		Name:	Data.Set
		Dir:	{Application}/lib/Platform
		Compiler
			NeverMemoryProfile:	False
			NeverTimeProfile:	False
			StrictnessAnalysis:	True
			ListTypes:	StrictExportTypes
			ListAttributes:	True
			Warnings:	True
			Verbose:	True
			ReadableABC:	False
			ReuseUniqueNodes:	True
			Fusion:	False
	Module
		Name:	Data.Traversable
		Dir:	{Application}/lib/Platform
		Compiler
			NeverMemoryProfile:	False
			NeverTimeProfile:	False
			StrictnessAnalysis:	True
			ListTypes:	StrictExportTypes
			ListAttributes:	True
			Warnings:	True
			Verbose:	True
			ReadableABC:	False
			ReuseUniqueNodes:	True
			Fusion:	False
	Module
		Name:	Data.Tuple
		Dir:	{Application}/lib/Platform
		Compiler
			NeverMemoryProfile:	False
			NeverTimeProfile:	False
			StrictnessAnalysis:	True
			ListTypes:	StrictExportTypes
			ListAttributes:	True
			Warnings:	True
			Verbose:	True
			ReadableABC:	False
			ReuseUniqueNodes:	True
			Fusion:	False
	Module
		Name:	Data.Void
		Dir:	{Application}/lib/Platform
		Compiler
			NeverMemoryProfile:	False
			NeverTimeProfile:	False
			StrictnessAnalysis:	True
			ListTypes:	StrictExportTypes
			ListAttributes:	True
			Warnings:	True
			Verbose:	True
			ReadableABC:	False
			ReuseUniqueNodes:	True
			Fusion:	False
	Module
		Name:	Graphics.Scalable
		Dir:	{Application}/lib/Platform
		Compiler
			NeverMemoryProfile:	False
			NeverTimeProfile:	False
			StrictnessAnalysis:	True
			ListTypes:	StrictExportTypes
			ListAttributes:	True
			Warnings:	True
			Verbose:	True
			ReadableABC:	False
			ReuseUniqueNodes:	True
			Fusion:	False
	Module
		Name:	Graphics.Scalable.Internal
		Dir:	{Application}/lib/Platform
		Compiler
			NeverMemoryProfile:	False
			NeverTimeProfile:	False
			StrictnessAnalysis:	True
			ListTypes:	StrictExportTypes
			ListAttributes:	True
			Warnings:	True
			Verbose:	True
			ReadableABC:	False
			ReuseUniqueNodes:	True
			Fusion:	False
	Module
		Name:	Internet.HTTP
		Dir:	{Application}/lib/Platform
		Compiler
			NeverMemoryProfile:	False
			NeverTimeProfile:	False
			StrictnessAnalysis:	True
			ListTypes:	StrictExportTypes
			ListAttributes:	True
			Warnings:	True
			Verbose:	True
			ReadableABC:	False
			ReuseUniqueNodes:	True
			Fusion:	False
	Module
		Name:	Math.Geometry
		Dir:	{Application}/lib/Platform
		Compiler
			NeverMemoryProfile:	False
			NeverTimeProfile:	False
			StrictnessAnalysis:	True
			ListTypes:	StrictExportTypes
			ListAttributes:	True
			Warnings:	True
			Verbose:	True
			ReadableABC:	False
			ReuseUniqueNodes:	True
			Fusion:	False
	Module
		Name:	Math.Random
		Dir:	{Application}/lib/Platform
		Compiler
			NeverMemoryProfile:	False
			NeverTimeProfile:	False
			StrictnessAnalysis:	True
			ListTypes:	StrictExportTypes
			ListAttributes:	True
			Warnings:	True
			Verbose:	True
			ReadableABC:	False
			ReuseUniqueNodes:	True
			Fusion:	False
	Module
		Name:	System.CommandLine
		Dir:	{Application}/lib/Platform
		Compiler
			NeverMemoryProfile:	False
			NeverTimeProfile:	False
			StrictnessAnalysis:	True
			ListTypes:	StrictExportTypes
			ListAttributes:	True
			Warnings:	True
			Verbose:	True
			ReadableABC:	False
			ReuseUniqueNodes:	True
			Fusion:	False
	Module
		Name:	System.Directory
		Dir:	{Application}/lib/Platform
		Compiler
			NeverMemoryProfile:	False
			NeverTimeProfile:	False
			StrictnessAnalysis:	True
			ListTypes:	StrictExportTypes
			ListAttributes:	True
			Warnings:	True
			Verbose:	True
			ReadableABC:	False
			ReuseUniqueNodes:	True
			Fusion:	False
	Module
		Name:	System.Environment
		Dir:	{Application}/lib/Platform
		Compiler
			NeverMemoryProfile:	False
			NeverTimeProfile:	False
			StrictnessAnalysis:	True
			ListTypes:	StrictExportTypes
			ListAttributes:	True
			Warnings:	True
			Verbose:	True
			ReadableABC:	False
			ReuseUniqueNodes:	True
			Fusion:	False
	Module
		Name:	System.File
		Dir:	{Application}/lib/Platform
		Compiler
			NeverMemoryProfile:	False
			NeverTimeProfile:	False
			StrictnessAnalysis:	True
			ListTypes:	StrictExportTypes
			ListAttributes:	True
			Warnings:	True
			Verbose:	True
			ReadableABC:	False
			ReuseUniqueNodes:	True
			Fusion:	False
	Module
		Name:	System.FilePath
		Dir:	{Application}/lib/Platform
		Compiler
			NeverMemoryProfile:	False
			NeverTimeProfile:	False
			StrictnessAnalysis:	True
			ListTypes:	StrictExportTypes
			ListAttributes:	True
			Warnings:	True
			Verbose:	True
			ReadableABC:	False
			ReuseUniqueNodes:	True
			Fusion:	False
	Module
		Name:	System.IO
		Dir:	{Application}/lib/Platform
		Compiler
			NeverMemoryProfile:	False
			NeverTimeProfile:	False
			StrictnessAnalysis:	True
			ListTypes:	StrictExportTypes
			ListAttributes:	True
			Warnings:	True
			Verbose:	True
			ReadableABC:	False
			ReuseUniqueNodes:	True
			Fusion:	False
	Module
		Name:	System.OS
		Dir:	{Application}/lib/Platform
		Compiler
			NeverMemoryProfile:	False
			NeverTimeProfile:	False
			StrictnessAnalysis:	True
			ListTypes:	StrictExportTypes
			ListAttributes:	True
			Warnings:	True
			Verbose:	True
			ReadableABC:	False
			ReuseUniqueNodes:	True
			Fusion:	False
	Module
		Name:	System.OSError
		Dir:	{Application}/lib/Platform
		Compiler
			NeverMemoryProfile:	False
			NeverTimeProfile:	False
			StrictnessAnalysis:	True
			ListTypes:	StrictExportTypes
			ListAttributes:	True
			Warnings:	True
			Verbose:	True
			ReadableABC:	False
			ReuseUniqueNodes:	True
			Fusion:	False
	Module
		Name:	System.Process
		Dir:	{Application}/lib/Platform
		Compiler
			NeverMemoryProfile:	False
			NeverTimeProfile:	False
			StrictnessAnalysis:	True
			ListTypes:	StrictExportTypes
			ListAttributes:	True
			Warnings:	True
			Verbose:	True
			ReadableABC:	False
			ReuseUniqueNodes:	True
			Fusion:	False
	Module
		Name:	System.Time
		Dir:	{Application}/lib/Platform
		Compiler
			NeverMemoryProfile:	False
			NeverTimeProfile:	False
			StrictnessAnalysis:	True
			ListTypes:	StrictExportTypes
			ListAttributes:	True
			Warnings:	True
			Verbose:	True
			ReadableABC:	False
			ReuseUniqueNodes:	True
			Fusion:	False
	Module
		Name:	System._FilePath
		Dir:	{Application}/lib/Platform
		Compiler
			NeverMemoryProfile:	False
			NeverTimeProfile:	False
			StrictnessAnalysis:	True
			ListTypes:	StrictExportTypes
			ListAttributes:	True
			Warnings:	True
			Verbose:	True
			ReadableABC:	False
			ReuseUniqueNodes:	True
			Fusion:	False
	Module
		Name:	System._Pointer
		Dir:	{Application}/lib/Platform
		Compiler
			NeverMemoryProfile:	False
			NeverTimeProfile:	False
			StrictnessAnalysis:	True
			ListTypes:	StrictExportTypes
			ListAttributes:	True
			Warnings:	True
			Verbose:	True
			ReadableABC:	False
			ReuseUniqueNodes:	True
			Fusion:	False
	Module
		Name:	System._Posix
		Dir:	{Application}/lib/Platform
		Compiler
			NeverMemoryProfile:	False
			NeverTimeProfile:	False
			StrictnessAnalysis:	True
			ListTypes:	StrictExportTypes
			ListAttributes:	True
			Warnings:	True
			Verbose:	True
			ReadableABC:	False
			ReuseUniqueNodes:	True
			Fusion:	False
	Module
		Name:	Text
		Dir:	{Application}/lib/Platform
		Compiler
			NeverMemoryProfile:	False
			NeverTimeProfile:	False
			StrictnessAnalysis:	True
			ListTypes:	StrictExportTypes
			ListAttributes:	True
			Warnings:	True
			Verbose:	True
			ReadableABC:	False
			ReuseUniqueNodes:	True
			Fusion:	False
	Module
		Name:	Text.CSV
		Dir:	{Application}/lib/Platform
		Compiler
			NeverMemoryProfile:	False
			NeverTimeProfile:	False
			StrictnessAnalysis:	True
			ListTypes:	StrictExportTypes
			ListAttributes:	True
			Warnings:	True
			Verbose:	True
			ReadableABC:	False
			ReuseUniqueNodes:	True
			Fusion:	False
	Module
		Name:	Text.Encodings.Base64
		Dir:	{Application}/lib/Platform
		Compiler
			NeverMemoryProfile:	False
			NeverTimeProfile:	False
			StrictnessAnalysis:	True
			ListTypes:	StrictExportTypes
			ListAttributes:	True
			Warnings:	True
			Verbose:	True
			ReadableABC:	False
			ReuseUniqueNodes:	True
			Fusion:	False
	Module
		Name:	Text.Encodings.MIME
		Dir:	{Application}/lib/Platform
		Compiler
			NeverMemoryProfile:	False
			NeverTimeProfile:	False
			StrictnessAnalysis:	True
			ListTypes:	StrictExportTypes
			ListAttributes:	True
			Warnings:	True
			Verbose:	True
			ReadableABC:	False
			ReuseUniqueNodes:	True
			Fusion:	False
	Module
		Name:	Text.Encodings.UrlEncoding
		Dir:	{Application}/lib/Platform
		Compiler
			NeverMemoryProfile:	False
			NeverTimeProfile:	False
			StrictnessAnalysis:	True
			ListTypes:	StrictExportTypes
			ListAttributes:	True
			Warnings:	True
			Verbose:	True
			ReadableABC:	False
			ReuseUniqueNodes:	True
			Fusion:	False
	Module
		Name:	Text.HTML
		Dir:	{Application}/lib/Platform
		Compiler
			NeverMemoryProfile:	False
			NeverTimeProfile:	False
			StrictnessAnalysis:	True
			ListTypes:	StrictExportTypes
			ListAttributes:	True
			Warnings:	True
			Verbose:	True
			ReadableABC:	False
			ReuseUniqueNodes:	True
			Fusion:	False
	Module
		Name:	Text.JSON
		Dir:	{Application}/lib/Platform
		Compiler
			NeverMemoryProfile:	False
			NeverTimeProfile:	False
			StrictnessAnalysis:	True
			ListTypes:	StrictExportTypes
			ListAttributes:	True
			Warnings:	True
			Verbose:	True
			ReadableABC:	False
			ReuseUniqueNodes:	True
			Fusion:	False
	Module
		Name:	Text.PPrint
		Dir:	{Application}/lib/Platform
		Compiler
			NeverMemoryProfile:	False
			NeverTimeProfile:	False
			StrictnessAnalysis:	True
			ListTypes:	StrictExportTypes
			ListAttributes:	True
			Warnings:	True
			Verbose:	True
			ReadableABC:	False
			ReuseUniqueNodes:	True
			Fusion:	False
	Module
		Name:	Text.Parsers.ZParsers.ParserLanguage
		Dir:	{Application}/lib/Platform
		Compiler
			NeverMemoryProfile:	False
			NeverTimeProfile:	False
			StrictnessAnalysis:	True
			ListTypes:	StrictExportTypes
			ListAttributes:	True
			Warnings:	True
			Verbose:	True
			ReadableABC:	False
			ReuseUniqueNodes:	True
			Fusion:	False
	Module
		Name:	Text.Parsers.ZParsers.Parsers
		Dir:	{Application}/lib/Platform
		Compiler
			NeverMemoryProfile:	False
			NeverTimeProfile:	False
			StrictnessAnalysis:	True
			ListTypes:	StrictExportTypes
			ListAttributes:	True
			Warnings:	True
			Verbose:	True
			ReadableABC:	False
			ReuseUniqueNodes:	True
			Fusion:	False
	Module
		Name:	Text.Parsers.ZParsers.ParsersAccessories
		Dir:	{Application}/lib/Platform
		Compiler
			NeverMemoryProfile:	False
			NeverTimeProfile:	False
			StrictnessAnalysis:	True
			ListTypes:	StrictExportTypes
			ListAttributes:	True
			Warnings:	True
			Verbose:	True
			ReadableABC:	False
			ReuseUniqueNodes:	True
			Fusion:	False
	Module
		Name:	Text.Parsers.ZParsers.ParsersDerived
		Dir:	{Application}/lib/Platform
		Compiler
			NeverMemoryProfile:	False
			NeverTimeProfile:	False
			StrictnessAnalysis:	True
			ListTypes:	StrictExportTypes
			ListAttributes:	True
			Warnings:	True
			Verbose:	True
			ReadableABC:	False
			ReuseUniqueNodes:	True
			Fusion:	False
	Module
		Name:	Text.Parsers.ZParsers.ParsersKernel
		Dir:	{Application}/lib/Platform
		Compiler
			NeverMemoryProfile:	False
			NeverTimeProfile:	False
			StrictnessAnalysis:	True
			ListTypes:	StrictExportTypes
			ListAttributes:	True
			Warnings:	True
			Verbose:	True
			ReadableABC:	False
			ReuseUniqueNodes:	True
			Fusion:	False
	Module
		Name:	Text.StringAppender
		Dir:	{Application}/lib/Platform
		Compiler
			NeverMemoryProfile:	False
			NeverTimeProfile:	False
			StrictnessAnalysis:	True
			ListTypes:	StrictExportTypes
			ListAttributes:	True
			Warnings:	True
			Verbose:	True
			ReadableABC:	False
			ReuseUniqueNodes:	True
			Fusion:	False
	Module
		Name:	Text.URI
		Dir:	{Application}/lib/Platform
		Compiler
			NeverMemoryProfile:	False
			NeverTimeProfile:	False
			StrictnessAnalysis:	True
			ListTypes:	StrictExportTypes
			ListAttributes:	True
			Warnings:	True
			Verbose:	True
			ReadableABC:	False
			ReuseUniqueNodes:	True
			Fusion:	False
	Module
		Name:	Text.Unicode
		Dir:	{Application}/lib/Platform
		Compiler
			NeverMemoryProfile:	False
			NeverTimeProfile:	False
			StrictnessAnalysis:	True
			ListTypes:	StrictExportTypes
			ListAttributes:	True
			Warnings:	True
			Verbose:	True
			ReadableABC:	False
			ReuseUniqueNodes:	True
			Fusion:	False
	Module
		Name:	Text.Unicode.Encodings.JS
		Dir:	{Application}/lib/Platform
		Compiler
			NeverMemoryProfile:	False
			NeverTimeProfile:	False
			StrictnessAnalysis:	True
			ListTypes:	StrictExportTypes
			ListAttributes:	True
			Warnings:	True
			Verbose:	True
			ReadableABC:	False
			ReuseUniqueNodes:	True
			Fusion:	False
	Module
		Name:	Text.Unicode.UChar
		Dir:	{Application}/lib/Platform
		Compiler
			NeverMemoryProfile:	False
			NeverTimeProfile:	False
			StrictnessAnalysis:	True
			ListTypes:	StrictExportTypes
			ListAttributes:	True
			Warnings:	True
			Verbose:	True
			ReadableABC:	False
			ReuseUniqueNodes:	True
			Fusion:	False
		NeededObjFiles
			ObjectFile:	WCsubst.
			ObjectFile:	bsearch.
	Module
		Name:	StdMaybe
		Dir:	{Application}/lib/Platform/Deprecated/StdLib
		Compiler
			NeverMemoryProfile:	False
			NeverTimeProfile:	False
			StrictnessAnalysis:	True
			ListTypes:	StrictExportTypes
			ListAttributes:	True
			Warnings:	True
			Verbose:	True
			ReadableABC:	False
			ReuseUniqueNodes:	True
			Fusion:	False
	Module
		Name:	Sapl.FastString
		Dir:	{Application}/lib/Sapl
		Compiler
			NeverMemoryProfile:	False
			NeverTimeProfile:	False
			StrictnessAnalysis:	True
			ListTypes:	StrictExportTypes
			ListAttributes:	True
			Warnings:	True
			Verbose:	True
			ReadableABC:	False
			ReuseUniqueNodes:	True
			Fusion:	False
	Module
		Name:	Sapl.Linker.LazyLinker
		Dir:	{Application}/lib/Sapl
		Compiler
			NeverMemoryProfile:	False
			NeverTimeProfile:	False
			StrictnessAnalysis:	True
			ListTypes:	StrictExportTypes
			ListAttributes:	True
			Warnings:	True
			Verbose:	True
			ReadableABC:	False
			ReuseUniqueNodes:	True
			Fusion:	False
	Module
		Name:	Sapl.Linker.SaplLinkerShared
		Dir:	{Application}/lib/Sapl
		Compiler
			NeverMemoryProfile:	False
			NeverTimeProfile:	False
			StrictnessAnalysis:	True
			ListTypes:	StrictExportTypes
			ListAttributes:	True
			Warnings:	True
			Verbose:	True
			ReadableABC:	False
			ReuseUniqueNodes:	True
			Fusion:	False
	Module
		Name:	Sapl.Optimization.StrictnessPropagation
		Dir:	{Application}/lib/Sapl
		Compiler
			NeverMemoryProfile:	False
			NeverTimeProfile:	False
			StrictnessAnalysis:	True
			ListTypes:	StrictExportTypes
			ListAttributes:	True
			Warnings:	True
			Verbose:	True
			ReadableABC:	False
			ReuseUniqueNodes:	True
			Fusion:	False
	Module
		Name:	Sapl.SaplParser
		Dir:	{Application}/lib/Sapl
		Compiler
			NeverMemoryProfile:	False
			NeverTimeProfile:	False
			StrictnessAnalysis:	True
			ListTypes:	StrictExportTypes
			ListAttributes:	True
			Warnings:	True
			Verbose:	True
			ReadableABC:	False
			ReuseUniqueNodes:	True
			Fusion:	False
	Module
		Name:	Sapl.SaplStruct
		Dir:	{Application}/lib/Sapl
		Compiler
			NeverMemoryProfile:	False
			NeverTimeProfile:	False
			StrictnessAnalysis:	True
			ListTypes:	StrictExportTypes
			ListAttributes:	True
			Warnings:	True
			Verbose:	True
			ReadableABC:	False
			ReuseUniqueNodes:	True
			Fusion:	False
	Module
		Name:	Sapl.SaplTokenizer
		Dir:	{Application}/lib/Sapl
		Compiler
			NeverMemoryProfile:	False
			NeverTimeProfile:	False
			StrictnessAnalysis:	True
			ListTypes:	StrictExportTypes
			ListAttributes:	True
			Warnings:	True
			Verbose:	True
			ReadableABC:	False
			ReuseUniqueNodes:	True
			Fusion:	False
	Module
		Name:	Sapl.Target.CleanFlavour
		Dir:	{Application}/lib/Sapl
		Compiler
			NeverMemoryProfile:	False
			NeverTimeProfile:	False
			StrictnessAnalysis:	True
			ListTypes:	StrictExportTypes
			ListAttributes:	True
			Warnings:	True
			Verbose:	True
			ReadableABC:	False
			ReuseUniqueNodes:	True
			Fusion:	False
	Module
		Name:	Sapl.Target.Flavour
		Dir:	{Application}/lib/Sapl
		Compiler
			NeverMemoryProfile:	False
			NeverTimeProfile:	False
			StrictnessAnalysis:	True
			ListTypes:	StrictExportTypes
			ListAttributes:	True
			Warnings:	True
			Verbose:	True
			ReadableABC:	False
			ReuseUniqueNodes:	True
			Fusion:	False
	Module
		Name:	Sapl.Target.JS.CodeGeneratorJS
		Dir:	{Application}/lib/Sapl
		Compiler
			NeverMemoryProfile:	False
			NeverTimeProfile:	False
			StrictnessAnalysis:	True
			ListTypes:	StrictExportTypes
			ListAttributes:	True
			Warnings:	True
			Verbose:	True
			ReadableABC:	False
			ReuseUniqueNodes:	True
			Fusion:	False
	Module
		Name:	Sapl.Target.JS.Lifting
		Dir:	{Application}/lib/Sapl
		Compiler
			NeverMemoryProfile:	False
			NeverTimeProfile:	False
			StrictnessAnalysis:	True
			ListTypes:	StrictExportTypes
			ListAttributes:	True
			Warnings:	True
			Verbose:	True
			ReadableABC:	False
			ReuseUniqueNodes:	True
			Fusion:	False
	Module
		Name:	Sapl.Transform.AddSelectors
		Dir:	{Application}/lib/Sapl
		Compiler
			NeverMemoryProfile:	False
			NeverTimeProfile:	False
			StrictnessAnalysis:	True
			ListTypes:	StrictExportTypes
			ListAttributes:	True
			Warnings:	True
			Verbose:	True
			ReadableABC:	False
			ReuseUniqueNodes:	True
			Fusion:	False
	Module
		Name:	Sapl.Transform.Let
		Dir:	{Application}/lib/Sapl
		Compiler
			NeverMemoryProfile:	False
			NeverTimeProfile:	False
			StrictnessAnalysis:	True
			ListTypes:	StrictExportTypes
			ListAttributes:	True
			Warnings:	True
			Verbose:	True
			ReadableABC:	False
			ReuseUniqueNodes:	True
			Fusion:	False
	Module
		Name:	Sapl.Transform.TailRecursion
		Dir:	{Application}/lib/Sapl
		Compiler
			NeverMemoryProfile:	False
			NeverTimeProfile:	False
			StrictnessAnalysis:	True
			ListTypes:	StrictExportTypes
			ListAttributes:	True
			Warnings:	True
			Verbose:	True
			ReadableABC:	False
			ReuseUniqueNodes:	True
			Fusion:	False
	Module
		Name:	StdArray
		Dir:	{Application}/lib/StdEnv
		Compiler
			NeverMemoryProfile:	False
			NeverTimeProfile:	False
			StrictnessAnalysis:	True
			ListTypes:	StrictExportTypes
			ListAttributes:	True
			Warnings:	True
			Verbose:	True
			ReadableABC:	False
			ReuseUniqueNodes:	True
			Fusion:	False
	Module
		Name:	StdBool
		Dir:	{Application}/lib/StdEnv
		Compiler
			NeverMemoryProfile:	False
			NeverTimeProfile:	False
			StrictnessAnalysis:	True
			ListTypes:	StrictExportTypes
			ListAttributes:	True
			Warnings:	True
			Verbose:	True
			ReadableABC:	False
			ReuseUniqueNodes:	True
			Fusion:	False
	Module
		Name:	StdChar
		Dir:	{Application}/lib/StdEnv
		Compiler
			NeverMemoryProfile:	False
			NeverTimeProfile:	False
			StrictnessAnalysis:	True
			ListTypes:	StrictExportTypes
			ListAttributes:	True
			Warnings:	True
			Verbose:	True
			ReadableABC:	False
			ReuseUniqueNodes:	True
			Fusion:	False
	Module
		Name:	StdCharList
		Dir:	{Application}/lib/StdEnv
		Compiler
			NeverMemoryProfile:	False
			NeverTimeProfile:	False
			StrictnessAnalysis:	True
			ListTypes:	StrictExportTypes
			ListAttributes:	True
			Warnings:	True
			Verbose:	True
			ReadableABC:	False
			ReuseUniqueNodes:	True
			Fusion:	False
	Module
		Name:	StdClass
		Dir:	{Application}/lib/StdEnv
		Compiler
			NeverMemoryProfile:	False
			NeverTimeProfile:	False
			StrictnessAnalysis:	True
			ListTypes:	StrictExportTypes
			ListAttributes:	True
			Warnings:	True
			Verbose:	True
			ReadableABC:	False
			ReuseUniqueNodes:	True
			Fusion:	False
	Module
		Name:	StdDebug
		Dir:	{Application}/lib/StdEnv
		Compiler
			NeverMemoryProfile:	False
			NeverTimeProfile:	False
			StrictnessAnalysis:	True
			ListTypes:	StrictExportTypes
			ListAttributes:	True
			Warnings:	True
			Verbose:	True
			ReadableABC:	False
			ReuseUniqueNodes:	True
			Fusion:	False
	Module
		Name:	StdEnum
		Dir:	{Application}/lib/StdEnv
		Compiler
			NeverMemoryProfile:	False
			NeverTimeProfile:	False
			StrictnessAnalysis:	True
			ListTypes:	StrictExportTypes
			ListAttributes:	True
			Warnings:	True
			Verbose:	True
			ReadableABC:	False
			ReuseUniqueNodes:	True
			Fusion:	False
	Module
		Name:	StdEnv
		Dir:	{Application}/lib/StdEnv
		Compiler
			NeverMemoryProfile:	False
			NeverTimeProfile:	False
			StrictnessAnalysis:	True
			ListTypes:	StrictExportTypes
			ListAttributes:	True
			Warnings:	True
			Verbose:	True
			ReadableABC:	False
			ReuseUniqueNodes:	True
			Fusion:	False
	Module
		Name:	StdFile
		Dir:	{Application}/lib/StdEnv
		Compiler
			NeverMemoryProfile:	False
			NeverTimeProfile:	False
			StrictnessAnalysis:	True
			ListTypes:	StrictExportTypes
			ListAttributes:	True
			Warnings:	True
			Verbose:	True
			ReadableABC:	False
			ReuseUniqueNodes:	True
			Fusion:	False
	Module
		Name:	StdFunc
		Dir:	{Application}/lib/StdEnv
		Compiler
			NeverMemoryProfile:	False
			NeverTimeProfile:	False
			StrictnessAnalysis:	True
			ListTypes:	StrictExportTypes
			ListAttributes:	True
			Warnings:	True
			Verbose:	True
			ReadableABC:	False
			ReuseUniqueNodes:	True
			Fusion:	False
	Module
		Name:	StdGeneric
		Dir:	{Application}/lib/StdEnv
		Compiler
			NeverMemoryProfile:	False
			NeverTimeProfile:	False
			StrictnessAnalysis:	True
			ListTypes:	StrictExportTypes
			ListAttributes:	True
			Warnings:	True
			Verbose:	True
			ReadableABC:	False
			ReuseUniqueNodes:	True
			Fusion:	False
	Module
		Name:	StdInt
		Dir:	{Application}/lib/StdEnv
		Compiler
			NeverMemoryProfile:	False
			NeverTimeProfile:	False
			StrictnessAnalysis:	True
			ListTypes:	StrictExportTypes
			ListAttributes:	True
			Warnings:	True
			Verbose:	True
			ReadableABC:	False
			ReuseUniqueNodes:	True
			Fusion:	False
	Module
		Name:	StdList
		Dir:	{Application}/lib/StdEnv
		Compiler
			NeverMemoryProfile:	False
			NeverTimeProfile:	False
			StrictnessAnalysis:	True
			ListTypes:	StrictExportTypes
			ListAttributes:	True
			Warnings:	True
			Verbose:	True
			ReadableABC:	False
			ReuseUniqueNodes:	True
			Fusion:	False
	Module
		Name:	StdMisc
		Dir:	{Application}/lib/StdEnv
		Compiler
			NeverMemoryProfile:	False
			NeverTimeProfile:	False
			StrictnessAnalysis:	True
			ListTypes:	StrictExportTypes
			ListAttributes:	True
			Warnings:	True
			Verbose:	True
			ReadableABC:	False
			ReuseUniqueNodes:	True
			Fusion:	False
	Module
		Name:	StdOrdList
		Dir:	{Application}/lib/StdEnv
		Compiler
			NeverMemoryProfile:	False
			NeverTimeProfile:	False
			StrictnessAnalysis:	True
			ListTypes:	StrictExportTypes
			ListAttributes:	True
			Warnings:	True
			Verbose:	True
			ReadableABC:	False
			ReuseUniqueNodes:	True
			Fusion:	False
	Module
		Name:	StdOverloaded
		Dir:	{Application}/lib/StdEnv
		Compiler
			NeverMemoryProfile:	False
			NeverTimeProfile:	False
			StrictnessAnalysis:	True
			ListTypes:	StrictExportTypes
			ListAttributes:	True
			Warnings:	True
			Verbose:	True
			ReadableABC:	False
			ReuseUniqueNodes:	True
			Fusion:	False
	Module
		Name:	StdOverloadedList
		Dir:	{Application}/lib/StdEnv
		Compiler
			NeverMemoryProfile:	False
			NeverTimeProfile:	False
			StrictnessAnalysis:	True
			ListTypes:	StrictExportTypes
			ListAttributes:	True
			Warnings:	True
			Verbose:	True
			ReadableABC:	False
			ReuseUniqueNodes:	True
			Fusion:	False
	Module
		Name:	StdReal
		Dir:	{Application}/lib/StdEnv
		Compiler
			NeverMemoryProfile:	False
			NeverTimeProfile:	False
			StrictnessAnalysis:	True
			ListTypes:	StrictExportTypes
			ListAttributes:	True
			Warnings:	True
			Verbose:	True
			ReadableABC:	False
			ReuseUniqueNodes:	True
			Fusion:	False
	Module
		Name:	StdStrictLists
		Dir:	{Application}/lib/StdEnv
		Compiler
			NeverMemoryProfile:	False
			NeverTimeProfile:	False
			StrictnessAnalysis:	True
			ListTypes:	StrictExportTypes
			ListAttributes:	True
			Warnings:	True
			Verbose:	True
			ReadableABC:	False
			ReuseUniqueNodes:	True
			Fusion:	False
	Module
		Name:	StdString
		Dir:	{Application}/lib/StdEnv
		Compiler
			NeverMemoryProfile:	False
			NeverTimeProfile:	False
			StrictnessAnalysis:	True
			ListTypes:	StrictExportTypes
			ListAttributes:	True
			Warnings:	True
			Verbose:	True
			ReadableABC:	False
			ReuseUniqueNodes:	True
			Fusion:	False
	Module
		Name:	StdTuple
		Dir:	{Application}/lib/StdEnv
		Compiler
			NeverMemoryProfile:	False
			NeverTimeProfile:	False
			StrictnessAnalysis:	True
			ListTypes:	StrictExportTypes
			ListAttributes:	True
			Warnings:	True
			Verbose:	True
			ReadableABC:	False
			ReuseUniqueNodes:	True
			Fusion:	False
	Module
		Name:	_SystemArray
		Dir:	{Application}/lib/StdEnv
		Compiler
			NeverMemoryProfile:	False
			NeverTimeProfile:	False
			StrictnessAnalysis:	True
			ListTypes:	StrictExportTypes
			ListAttributes:	True
			Warnings:	True
			Verbose:	True
			ReadableABC:	False
			ReuseUniqueNodes:	True
			Fusion:	False
	Module
		Name:	_SystemEnum
		Dir:	{Application}/lib/StdEnv
		Compiler
			NeverMemoryProfile:	False
			NeverTimeProfile:	False
			StrictnessAnalysis:	True
			ListTypes:	StrictExportTypes
			ListAttributes:	True
			Warnings:	True
			Verbose:	True
			ReadableABC:	False
			ReuseUniqueNodes:	True
			Fusion:	False
	Module
		Name:	_SystemEnumStrict
		Dir:	{Application}/lib/StdEnv
		Compiler
			NeverMemoryProfile:	False
			NeverTimeProfile:	False
			StrictnessAnalysis:	True
			ListTypes:	StrictExportTypes
			ListAttributes:	True
			Warnings:	True
			Verbose:	True
			ReadableABC:	False
			ReuseUniqueNodes:	True
			Fusion:	False
	Module
		Name:	_SystemStrictLists
		Dir:	{Application}/lib/StdEnv
		Compiler
			NeverMemoryProfile:	False
			NeverTimeProfile:	False
			StrictnessAnalysis:	True
			ListTypes:	StrictExportTypes
			ListAttributes:	True
			Warnings:	True
			Verbose:	True
			ReadableABC:	False
			ReuseUniqueNodes:	True
			Fusion:	False
	Module
		Name:	TCPChannelClass
		Dir:	{Application}/lib/TCPIP
		Compiler
			NeverMemoryProfile:	False
			NeverTimeProfile:	False
			StrictnessAnalysis:	True
			ListTypes:	StrictExportTypes
			ListAttributes:	True
			Warnings:	True
			Verbose:	True
			ReadableABC:	False
			ReuseUniqueNodes:	True
			Fusion:	False
	Module
		Name:	TCPChannels
		Dir:	{Application}/lib/TCPIP
		Compiler
			NeverMemoryProfile:	False
			NeverTimeProfile:	False
			StrictnessAnalysis:	True
			ListTypes:	StrictExportTypes
			ListAttributes:	True
			Warnings:	True
			Verbose:	True
			ReadableABC:	False
			ReuseUniqueNodes:	True
			Fusion:	False
	Module
		Name:	TCPDef
		Dir:	{Application}/lib/TCPIP
		Compiler
			NeverMemoryProfile:	False
			NeverTimeProfile:	False
			StrictnessAnalysis:	True
			ListTypes:	StrictExportTypes
			ListAttributes:	True
			Warnings:	True
			Verbose:	True
			ReadableABC:	False
			ReuseUniqueNodes:	True
			Fusion:	False
	Module
		Name:	TCPEvent
		Dir:	{Application}/lib/TCPIP
		Compiler
			NeverMemoryProfile:	False
			NeverTimeProfile:	False
			StrictnessAnalysis:	True
			ListTypes:	StrictExportTypes
			ListAttributes:	True
			Warnings:	True
			Verbose:	True
			ReadableABC:	False
			ReuseUniqueNodes:	True
			Fusion:	False
	Module
		Name:	TCPIP
		Dir:	{Application}/lib/TCPIP
		Compiler
			NeverMemoryProfile:	False
			NeverTimeProfile:	False
			StrictnessAnalysis:	True
			ListTypes:	StrictExportTypes
			ListAttributes:	True
			Warnings:	True
			Verbose:	True
			ReadableABC:	False
			ReuseUniqueNodes:	True
			Fusion:	False
	Module
		Name:	TCPStringChannels
		Dir:	{Application}/lib/TCPIP
		Compiler
			NeverMemoryProfile:	False
			NeverTimeProfile:	False
			StrictnessAnalysis:	True
			ListTypes:	StrictExportTypes
			ListAttributes:	True
			Warnings:	True
			Verbose:	True
			ReadableABC:	False
			ReuseUniqueNodes:	True
			Fusion:	False
	Module
		Name:	TCPStringChannelsInternal
		Dir:	{Application}/lib/TCPIP
		Compiler
			NeverMemoryProfile:	False
			NeverTimeProfile:	False
			StrictnessAnalysis:	True
			ListTypes:	StrictExportTypes
			ListAttributes:	True
			Warnings:	True
			Verbose:	True
			ReadableABC:	False
			ReuseUniqueNodes:	True
			Fusion:	False
	Module
		Name:	ostcp
		Dir:	{Application}/lib/TCPIP
		Compiler
			NeverMemoryProfile:	False
			NeverTimeProfile:	False
			StrictnessAnalysis:	True
			ListTypes:	StrictExportTypes
			ListAttributes:	True
			Warnings:	True
			Verbose:	True
			ReadableABC:	False
			ReuseUniqueNodes:	True
			Fusion:	False
		NeededObjFiles
			ObjectFile:	cTCP_121.
	Module
		Name:	tcp
		Dir:	{Application}/lib/TCPIP
		Compiler
			NeverMemoryProfile:	False
			NeverTimeProfile:	False
			StrictnessAnalysis:	True
			ListTypes:	StrictExportTypes
			ListAttributes:	True
			Warnings:	True
			Verbose:	True
			ReadableABC:	False
			ReuseUniqueNodes:	True
			Fusion:	False
	Module
		Name:	tcp_bytestreams
		Dir:	{Application}/lib/TCPIP
		Compiler
			NeverMemoryProfile:	False
			NeverTimeProfile:	False
			StrictnessAnalysis:	True
			ListTypes:	StrictExportTypes
			ListAttributes:	True
			Warnings:	True
			Verbose:	True
			ReadableABC:	False
			ReuseUniqueNodes:	True
			Fusion:	False
	Module
		Name:	iTasks
		Dir:	{Application}/lib/iTasks
		Compiler
			NeverMemoryProfile:	False
			NeverTimeProfile:	False
			StrictnessAnalysis:	True
			ListTypes:	StrictExportTypes
			ListAttributes:	True
			Warnings:	True
			Verbose:	True
			ReadableABC:	False
			ReuseUniqueNodes:	True
			Fusion:	False
	Module
		Name:	iTasks.Engine
		Dir:	{Application}/lib/iTasks
		Compiler
			NeverMemoryProfile:	False
			NeverTimeProfile:	False
			StrictnessAnalysis:	True
			ListTypes:	StrictExportTypes
			ListAttributes:	True
			Warnings:	True
			Verbose:	True
			ReadableABC:	False
			ReuseUniqueNodes:	True
			Fusion:	False
	Module
		Name:	iTasks.Extensions.Admin.TonicAdmin
		Dir:	{Application}/lib/iTasks
		Compiler
			NeverMemoryProfile:	False
			NeverTimeProfile:	False
			StrictnessAnalysis:	True
			ListTypes:	StrictExportTypes
			ListAttributes:	True
			Warnings:	True
			Verbose:	True
			ReadableABC:	False
			ReuseUniqueNodes:	True
			Fusion:	False
	Module
		Name:	iTasks.Extensions.Admin.UserAdmin
		Dir:	{Application}/lib/iTasks
		Compiler
			NeverMemoryProfile:	False
			NeverTimeProfile:	False
			StrictnessAnalysis:	True
			ListTypes:	StrictExportTypes
			ListAttributes:	True
			Warnings:	True
			Verbose:	True
			ReadableABC:	False
			ReuseUniqueNodes:	True
			Fusion:	False
	Module
		Name:	iTasks.Extensions.Admin.WorkflowAdmin
		Dir:	{Application}/lib/iTasks
		Compiler
			NeverMemoryProfile:	False
			NeverTimeProfile:	False
			StrictnessAnalysis:	True
			ListTypes:	StrictExportTypes
			ListAttributes:	True
			Warnings:	True
			Verbose:	True
			ReadableABC:	False
			ReuseUniqueNodes:	True
			Fusion:	False
	Module
		Name:	iTasks.Extensions.CSVFile
		Dir:	{Application}/lib/iTasks
		Compiler
			NeverMemoryProfile:	False
			NeverTimeProfile:	False
			StrictnessAnalysis:	True
			ListTypes:	StrictExportTypes
			ListAttributes:	True
			Warnings:	True
			Verbose:	True
			ReadableABC:	False
			ReuseUniqueNodes:	True
			Fusion:	False
	Module
		Name:	iTasks.Extensions.DateTime
		Dir:	{Application}/lib/iTasks
		Compiler
			NeverMemoryProfile:	False
			NeverTimeProfile:	False
			StrictnessAnalysis:	True
			ListTypes:	StrictExportTypes
			ListAttributes:	True
			Warnings:	True
			Verbose:	True
			ReadableABC:	False
			ReuseUniqueNodes:	True
			Fusion:	False
	Module
		Name:	iTasks.Extensions.Document
		Dir:	{Application}/lib/iTasks
		Compiler
			NeverMemoryProfile:	False
			NeverTimeProfile:	False
			StrictnessAnalysis:	True
			ListTypes:	StrictExportTypes
			ListAttributes:	True
			Warnings:	True
			Verbose:	True
			ReadableABC:	False
			ReuseUniqueNodes:	True
			Fusion:	False
	Module
		Name:	iTasks.Extensions.Form.Pikaday
		Dir:	{Application}/lib/iTasks
		Compiler
			NeverMemoryProfile:	False
			NeverTimeProfile:	False
			StrictnessAnalysis:	True
			ListTypes:	StrictExportTypes
			ListAttributes:	True
			Warnings:	True
			Verbose:	True
			ReadableABC:	False
			ReuseUniqueNodes:	True
			Fusion:	False
	Module
		Name:	iTasks.Extensions.Platform
		Dir:	{Application}/lib/iTasks
		Compiler
			NeverMemoryProfile:	False
			NeverTimeProfile:	False
			StrictnessAnalysis:	True
			ListTypes:	StrictExportTypes
			ListAttributes:	True
			Warnings:	True
			Verbose:	True
			ReadableABC:	False
			ReuseUniqueNodes:	True
			Fusion:	False
	Module
		Name:	iTasks.Extensions.SVG.SVGEditor
		Dir:	{Application}/lib/iTasks
		Compiler
			NeverMemoryProfile:	False
			NeverTimeProfile:	False
			StrictnessAnalysis:	True
			ListTypes:	StrictExportTypes
			ListAttributes:	True
			Warnings:	True
			Verbose:	True
			ReadableABC:	False
			ReuseUniqueNodes:	True
			Fusion:	False
	Module
		Name:	iTasks.Extensions.TextFile
		Dir:	{Application}/lib/iTasks
		Compiler
			NeverMemoryProfile:	False
			NeverTimeProfile:	False
			StrictnessAnalysis:	True
			ListTypes:	StrictExportTypes
			ListAttributes:	True
			Warnings:	True
			Verbose:	True
			ReadableABC:	False
			ReuseUniqueNodes:	True
			Fusion:	False
	Module
		Name:	iTasks.Extensions.User
		Dir:	{Application}/lib/iTasks
		Compiler
			NeverMemoryProfile:	False
			NeverTimeProfile:	False
			StrictnessAnalysis:	True
			ListTypes:	StrictExportTypes
			ListAttributes:	True
			Warnings:	True
			Verbose:	True
			ReadableABC:	False
			ReuseUniqueNodes:	True
			Fusion:	False
	Module
		Name:	iTasks.Extensions.Web
		Dir:	{Application}/lib/iTasks
		Compiler
			NeverMemoryProfile:	False
			NeverTimeProfile:	False
			StrictnessAnalysis:	True
			ListTypes:	StrictExportTypes
			ListAttributes:	True
			Warnings:	True
			Verbose:	True
			ReadableABC:	False
			ReuseUniqueNodes:	True
			Fusion:	False
	Module
		Name:	iTasks.Internal.Client.JSStore
		Dir:	{Application}/lib/iTasks
		Compiler
			NeverMemoryProfile:	False
			NeverTimeProfile:	False
			StrictnessAnalysis:	True
			ListTypes:	StrictExportTypes
			ListAttributes:	True
			Warnings:	True
			Verbose:	True
			ReadableABC:	False
			ReuseUniqueNodes:	True
			Fusion:	False
	Module
		Name:	iTasks.Internal.Client.LinkerSupport
		Dir:	{Application}/lib/iTasks
		Compiler
			NeverMemoryProfile:	False
			NeverTimeProfile:	False
			StrictnessAnalysis:	True
			ListTypes:	StrictExportTypes
			ListAttributes:	True
			Warnings:	True
			Verbose:	True
			ReadableABC:	False
			ReuseUniqueNodes:	True
			Fusion:	False
	Module
		Name:	iTasks.Internal.Client.Override
		Dir:	{Application}/lib/iTasks
		Compiler
			NeverMemoryProfile:	False
			NeverTimeProfile:	False
			StrictnessAnalysis:	True
			ListTypes:	StrictExportTypes
			ListAttributes:	True
			Warnings:	True
			Verbose:	True
			ReadableABC:	False
			ReuseUniqueNodes:	True
			Fusion:	False
	Module
		Name:	iTasks.Internal.Client.RunOnClient
		Dir:	{Application}/lib/iTasks
		Compiler
			NeverMemoryProfile:	False
			NeverTimeProfile:	False
			StrictnessAnalysis:	True
			ListTypes:	StrictExportTypes
			ListAttributes:	True
			Warnings:	True
			Verbose:	True
			ReadableABC:	False
			ReuseUniqueNodes:	True
			Fusion:	False
	Module
		Name:	iTasks.Internal.DynamicUtil
		Dir:	{Application}/lib/iTasks
		Compiler
			NeverMemoryProfile:	False
			NeverTimeProfile:	False
			StrictnessAnalysis:	True
			ListTypes:	StrictExportTypes
			ListAttributes:	True
			Warnings:	True
			Verbose:	True
			ReadableABC:	False
			ReuseUniqueNodes:	True
			Fusion:	False
	Module
		Name:	iTasks.Internal.EngineTasks
		Dir:	{Application}/lib/iTasks
		Compiler
			NeverMemoryProfile:	False
			NeverTimeProfile:	False
			StrictnessAnalysis:	True
			ListTypes:	StrictExportTypes
			ListAttributes:	True
			Warnings:	True
			Verbose:	True
			ReadableABC:	False
			ReuseUniqueNodes:	True
			Fusion:	False
	Module
		Name:	iTasks.Internal.Generic.Defaults
		Dir:	{Application}/lib/iTasks
		Compiler
			NeverMemoryProfile:	False
			NeverTimeProfile:	False
			StrictnessAnalysis:	True
			ListTypes:	StrictExportTypes
			ListAttributes:	True
			Warnings:	True
			Verbose:	True
			ReadableABC:	False
			ReuseUniqueNodes:	True
			Fusion:	False
	Module
		Name:	iTasks.Internal.Generic.Visualization
		Dir:	{Application}/lib/iTasks
		Compiler
			NeverMemoryProfile:	False
			NeverTimeProfile:	False
			StrictnessAnalysis:	True
			ListTypes:	StrictExportTypes
			ListAttributes:	True
			Warnings:	True
			Verbose:	True
			ReadableABC:	False
			ReuseUniqueNodes:	True
			Fusion:	False
	Module
		Name:	iTasks.Internal.HtmlUtil
		Dir:	{Application}/lib/iTasks
		Compiler
			NeverMemoryProfile:	False
			NeverTimeProfile:	False
			StrictnessAnalysis:	True
			ListTypes:	StrictExportTypes
			ListAttributes:	True
			Warnings:	True
			Verbose:	True
			ReadableABC:	False
			ReuseUniqueNodes:	True
			Fusion:	False
	Module
		Name:	iTasks.Internal.HttpUtil
		Dir:	{Application}/lib/iTasks
		Compiler
			NeverMemoryProfile:	False
			NeverTimeProfile:	False
			StrictnessAnalysis:	True
			ListTypes:	StrictExportTypes
			ListAttributes:	True
			Warnings:	True
			Verbose:	True
			ReadableABC:	False
			ReuseUniqueNodes:	True
			Fusion:	False
	Module
		Name:	iTasks.Internal.IWorld
		Dir:	{Application}/lib/iTasks
		Compiler
			NeverMemoryProfile:	False
			NeverTimeProfile:	False
			StrictnessAnalysis:	True
			ListTypes:	StrictExportTypes
			ListAttributes:	True
			Warnings:	True
			Verbose:	True
			ReadableABC:	False
			ReuseUniqueNodes:	True
			Fusion:	False
	Module
		Name:	iTasks.Internal.RemoteAccess
		Dir:	{Application}/lib/iTasks
		Compiler
			NeverMemoryProfile:	False
			NeverTimeProfile:	False
			StrictnessAnalysis:	True
			ListTypes:	StrictExportTypes
			ListAttributes:	True
			Warnings:	True
			Verbose:	True
			ReadableABC:	False
			ReuseUniqueNodes:	True
			Fusion:	False
	Module
		Name:	iTasks.Internal.SDS
		Dir:	{Application}/lib/iTasks
		Compiler
			NeverMemoryProfile:	False
			NeverTimeProfile:	False
			StrictnessAnalysis:	True
			ListTypes:	StrictExportTypes
			ListAttributes:	True
			Warnings:	True
			Verbose:	True
			ReadableABC:	False
			ReuseUniqueNodes:	True
			Fusion:	False
	Module
		Name:	iTasks.Internal.SDSService
		Dir:	{Application}/lib/iTasks
		Compiler
			NeverMemoryProfile:	False
			NeverTimeProfile:	False
			StrictnessAnalysis:	True
			ListTypes:	StrictExportTypes
			ListAttributes:	True
			Warnings:	True
			Verbose:	True
			ReadableABC:	False
			ReuseUniqueNodes:	True
			Fusion:	False
	Module
		Name:	iTasks.Internal.Serialization
		Dir:	{Application}/lib/iTasks
		Compiler
			NeverMemoryProfile:	False
			NeverTimeProfile:	False
			StrictnessAnalysis:	True
			ListTypes:	StrictExportTypes
			ListAttributes:	True
			Warnings:	True
			Verbose:	True
			ReadableABC:	False
			ReuseUniqueNodes:	True
			Fusion:	False
	Module
		Name:	iTasks.Internal.Store
		Dir:	{Application}/lib/iTasks
		Compiler
			NeverMemoryProfile:	False
			NeverTimeProfile:	False
			StrictnessAnalysis:	True
			ListTypes:	StrictExportTypes
			ListAttributes:	True
			Warnings:	True
			Verbose:	True
			ReadableABC:	False
			ReuseUniqueNodes:	True
			Fusion:	False
	Module
		Name:	iTasks.Internal.Task
		Dir:	{Application}/lib/iTasks
		Compiler
			NeverMemoryProfile:	False
			NeverTimeProfile:	False
			StrictnessAnalysis:	True
			ListTypes:	StrictExportTypes
			ListAttributes:	True
			Warnings:	True
			Verbose:	True
			ReadableABC:	False
			ReuseUniqueNodes:	True
			Fusion:	False
	Module
		Name:	iTasks.Internal.TaskEval
		Dir:	{Application}/lib/iTasks
		Compiler
			NeverMemoryProfile:	False
			NeverTimeProfile:	False
			StrictnessAnalysis:	True
			ListTypes:	StrictExportTypes
			ListAttributes:	True
			Warnings:	True
			Verbose:	True
			ReadableABC:	False
			ReuseUniqueNodes:	True
			Fusion:	False
	Module
		Name:	iTasks.Internal.TaskServer
		Dir:	{Application}/lib/iTasks
		Compiler
			NeverMemoryProfile:	False
			NeverTimeProfile:	False
			StrictnessAnalysis:	True
			ListTypes:	StrictExportTypes
			ListAttributes:	True
			Warnings:	True
			Verbose:	True
			ReadableABC:	False
			ReuseUniqueNodes:	True
			Fusion:	False
	Module
		Name:	iTasks.Internal.TaskState
		Dir:	{Application}/lib/iTasks
		Compiler
			NeverMemoryProfile:	False
			NeverTimeProfile:	False
			StrictnessAnalysis:	True
			ListTypes:	StrictExportTypes
			ListAttributes:	True
			Warnings:	True
			Verbose:	True
			ReadableABC:	False
			ReuseUniqueNodes:	True
			Fusion:	False
	Module
		Name:	iTasks.Internal.TaskStore
		Dir:	{Application}/lib/iTasks
		Compiler
			NeverMemoryProfile:	False
			NeverTimeProfile:	False
			StrictnessAnalysis:	True
			ListTypes:	StrictExportTypes
			ListAttributes:	True
			Warnings:	True
			Verbose:	True
			ReadableABC:	False
			ReuseUniqueNodes:	True
			Fusion:	False
	Module
		Name:	iTasks.Internal.Tonic
		Dir:	{Application}/lib/iTasks
		Compiler
			NeverMemoryProfile:	False
			NeverTimeProfile:	False
			StrictnessAnalysis:	True
			ListTypes:	StrictExportTypes
			ListAttributes:	True
			Warnings:	True
			Verbose:	True
			ReadableABC:	False
			ReuseUniqueNodes:	True
			Fusion:	False
	Module
		Name:	iTasks.Internal.Tonic.AbsSyn
		Dir:	{Application}/lib/iTasks
		Compiler
			NeverMemoryProfile:	False
			NeverTimeProfile:	False
			StrictnessAnalysis:	True
			ListTypes:	StrictExportTypes
			ListAttributes:	True
			Warnings:	True
			Verbose:	True
			ReadableABC:	False
			ReuseUniqueNodes:	True
			Fusion:	False
	Module
		Name:	iTasks.Internal.Tonic.Blueprints
		Dir:	{Application}/lib/iTasks
		Compiler
			NeverMemoryProfile:	False
			NeverTimeProfile:	False
			StrictnessAnalysis:	True
			ListTypes:	StrictExportTypes
			ListAttributes:	True
			Warnings:	True
			Verbose:	True
			ReadableABC:	False
			ReuseUniqueNodes:	True
			Fusion:	False
	Module
		Name:	iTasks.Internal.Tonic.Images
		Dir:	{Application}/lib/iTasks
		Compiler
			NeverMemoryProfile:	False
			NeverTimeProfile:	False
			StrictnessAnalysis:	True
			ListTypes:	StrictExportTypes
			ListAttributes:	True
			Warnings:	True
			Verbose:	True
			ReadableABC:	False
			ReuseUniqueNodes:	True
			Fusion:	False
	Module
		Name:	iTasks.Internal.Tonic.Pretty
		Dir:	{Application}/lib/iTasks
		Compiler
			NeverMemoryProfile:	False
			NeverTimeProfile:	False
			StrictnessAnalysis:	True
			ListTypes:	StrictExportTypes
			ListAttributes:	True
			Warnings:	True
			Verbose:	True
			ReadableABC:	False
			ReuseUniqueNodes:	True
			Fusion:	False
	Module
		Name:	iTasks.Internal.Tonic.Server
		Dir:	{Application}/lib/iTasks
		Compiler
			NeverMemoryProfile:	False
			NeverTimeProfile:	False
			StrictnessAnalysis:	True
			ListTypes:	StrictExportTypes
			ListAttributes:	True
			Warnings:	True
			Verbose:	True
			ReadableABC:	False
			ReuseUniqueNodes:	True
			Fusion:	False
	Module
		Name:	iTasks.Internal.Tonic.Shares
		Dir:	{Application}/lib/iTasks
		Compiler
			NeverMemoryProfile:	False
			NeverTimeProfile:	False
			StrictnessAnalysis:	True
			ListTypes:	StrictExportTypes
			ListAttributes:	True
			Warnings:	True
			Verbose:	True
			ReadableABC:	False
			ReuseUniqueNodes:	True
			Fusion:	False
	Module
		Name:	iTasks.Internal.Tonic.Types
		Dir:	{Application}/lib/iTasks
		Compiler
			NeverMemoryProfile:	False
			NeverTimeProfile:	False
			StrictnessAnalysis:	True
			ListTypes:	StrictExportTypes
			ListAttributes:	True
			Warnings:	True
			Verbose:	True
			ReadableABC:	False
			ReuseUniqueNodes:	True
			Fusion:	False
	Module
		Name:	iTasks.Internal.Util
		Dir:	{Application}/lib/iTasks
		Compiler
			NeverMemoryProfile:	False
			NeverTimeProfile:	False
			StrictnessAnalysis:	True
			ListTypes:	StrictExportTypes
			ListAttributes:	True
			Warnings:	True
			Verbose:	True
			ReadableABC:	False
			ReuseUniqueNodes:	True
			Fusion:	False
	Module
		Name:	iTasks.Internal.WebService
		Dir:	{Application}/lib/iTasks
		Compiler
			NeverMemoryProfile:	False
			NeverTimeProfile:	False
			StrictnessAnalysis:	True
			ListTypes:	StrictExportTypes
			ListAttributes:	True
			Warnings:	True
			Verbose:	True
			ReadableABC:	False
			ReuseUniqueNodes:	True
			Fusion:	False
	Module
		Name:	iTasks.SDS.Combinators.Common
		Dir:	{Application}/lib/iTasks
		Compiler
			NeverMemoryProfile:	False
			NeverTimeProfile:	False
			StrictnessAnalysis:	True
			ListTypes:	StrictExportTypes
			ListAttributes:	True
			Warnings:	True
			Verbose:	True
			ReadableABC:	False
			ReuseUniqueNodes:	True
			Fusion:	False
	Module
		Name:	iTasks.SDS.Combinators.Core
		Dir:	{Application}/lib/iTasks
		Compiler
			NeverMemoryProfile:	False
			NeverTimeProfile:	False
			StrictnessAnalysis:	True
			ListTypes:	StrictExportTypes
			ListAttributes:	True
			Warnings:	True
			Verbose:	True
			ReadableABC:	False
			ReuseUniqueNodes:	True
			Fusion:	False
	Module
		Name:	iTasks.SDS.Definition
		Dir:	{Application}/lib/iTasks
		Compiler
			NeverMemoryProfile:	False
			NeverTimeProfile:	False
			StrictnessAnalysis:	True
			ListTypes:	StrictExportTypes
			ListAttributes:	True
			Warnings:	True
			Verbose:	True
			ReadableABC:	False
			ReuseUniqueNodes:	True
			Fusion:	False
	Module
		Name:	iTasks.SDS.Sources.Core
		Dir:	{Application}/lib/iTasks
		Compiler
			NeverMemoryProfile:	False
			NeverTimeProfile:	False
			StrictnessAnalysis:	True
			ListTypes:	StrictExportTypes
			ListAttributes:	True
			Warnings:	True
			Verbose:	True
			ReadableABC:	False
			ReuseUniqueNodes:	True
			Fusion:	False
	Module
		Name:	iTasks.SDS.Sources.Store
		Dir:	{Application}/lib/iTasks
		Compiler
			NeverMemoryProfile:	False
			NeverTimeProfile:	False
			StrictnessAnalysis:	True
			ListTypes:	StrictExportTypes
			ListAttributes:	True
			Warnings:	True
			Verbose:	True
			ReadableABC:	False
			ReuseUniqueNodes:	True
			Fusion:	False
	Module
		Name:	iTasks.SDS.Sources.System
		Dir:	{Application}/lib/iTasks
		Compiler
			NeverMemoryProfile:	False
			NeverTimeProfile:	False
			StrictnessAnalysis:	True
			ListTypes:	StrictExportTypes
			ListAttributes:	True
			Warnings:	True
			Verbose:	True
			ReadableABC:	False
			ReuseUniqueNodes:	True
			Fusion:	False
	Module
		Name:	iTasks.UI.Definition
		Dir:	{Application}/lib/iTasks
		Compiler
			NeverMemoryProfile:	False
			NeverTimeProfile:	False
			StrictnessAnalysis:	True
			ListTypes:	StrictExportTypes
			ListAttributes:	True
			Warnings:	True
			Verbose:	True
			ReadableABC:	False
			ReuseUniqueNodes:	True
			Fusion:	False
	Module
		Name:	iTasks.UI.Editor
		Dir:	{Application}/lib/iTasks
		Compiler
			NeverMemoryProfile:	False
			NeverTimeProfile:	False
			StrictnessAnalysis:	True
			ListTypes:	StrictExportTypes
			ListAttributes:	True
			Warnings:	True
			Verbose:	True
			ReadableABC:	False
			ReuseUniqueNodes:	True
			Fusion:	False
	Module
		Name:	iTasks.UI.Editor.Common
		Dir:	{Application}/lib/iTasks
		Compiler
			NeverMemoryProfile:	False
			NeverTimeProfile:	False
			StrictnessAnalysis:	True
			ListTypes:	StrictExportTypes
			ListAttributes:	True
			Warnings:	True
			Verbose:	True
			ReadableABC:	False
			ReuseUniqueNodes:	True
			Fusion:	False
	Module
		Name:	iTasks.UI.Editor.Containers
		Dir:	{Application}/lib/iTasks
		Compiler
			NeverMemoryProfile:	False
			NeverTimeProfile:	False
			StrictnessAnalysis:	True
			ListTypes:	StrictExportTypes
			ListAttributes:	True
			Warnings:	True
			Verbose:	True
			ReadableABC:	False
			ReuseUniqueNodes:	True
			Fusion:	False
	Module
		Name:	iTasks.UI.Editor.Controls
		Dir:	{Application}/lib/iTasks
		Compiler
			NeverMemoryProfile:	False
			NeverTimeProfile:	False
			StrictnessAnalysis:	True
			ListTypes:	StrictExportTypes
			ListAttributes:	True
			Warnings:	True
			Verbose:	True
			ReadableABC:	False
			ReuseUniqueNodes:	True
			Fusion:	False
	Module
		Name:	iTasks.UI.Editor.Generic
		Dir:	{Application}/lib/iTasks
		Compiler
			NeverMemoryProfile:	False
			NeverTimeProfile:	False
			StrictnessAnalysis:	True
			ListTypes:	StrictExportTypes
			ListAttributes:	True
			Warnings:	True
			Verbose:	True
			ReadableABC:	False
			ReuseUniqueNodes:	True
			Fusion:	False
	Module
		Name:	iTasks.UI.Editor.Modifiers
		Dir:	{Application}/lib/iTasks
		Compiler
			NeverMemoryProfile:	False
			NeverTimeProfile:	False
			StrictnessAnalysis:	True
			ListTypes:	StrictExportTypes
			ListAttributes:	True
			Warnings:	True
			Verbose:	True
			ReadableABC:	False
			ReuseUniqueNodes:	True
			Fusion:	False
	Module
		Name:	iTasks.UI.JS.Encoding
		Dir:	{Application}/lib/iTasks
		Compiler
			NeverMemoryProfile:	False
			NeverTimeProfile:	False
			StrictnessAnalysis:	True
			ListTypes:	StrictExportTypes
			ListAttributes:	True
			Warnings:	True
			Verbose:	True
			ReadableABC:	False
			ReuseUniqueNodes:	True
			Fusion:	False
	Module
		Name:	iTasks.UI.JS.Interface
		Dir:	{Application}/lib/iTasks
		Compiler
			NeverMemoryProfile:	False
			NeverTimeProfile:	False
			StrictnessAnalysis:	True
			ListTypes:	StrictExportTypes
			ListAttributes:	True
			Warnings:	True
			Verbose:	True
			ReadableABC:	False
			ReuseUniqueNodes:	True
			Fusion:	False
	Module
		Name:	iTasks.UI.Layout
		Dir:	{Application}/lib/iTasks
		Compiler
			NeverMemoryProfile:	False
			NeverTimeProfile:	False
			StrictnessAnalysis:	True
			ListTypes:	StrictExportTypes
			ListAttributes:	True
			Warnings:	True
			Verbose:	True
			ReadableABC:	False
			ReuseUniqueNodes:	True
			Fusion:	False
	Module
		Name:	iTasks.UI.Layout.Common
		Dir:	{Application}/lib/iTasks
		Compiler
			NeverMemoryProfile:	False
			NeverTimeProfile:	False
			StrictnessAnalysis:	True
			ListTypes:	StrictExportTypes
			ListAttributes:	True
			Warnings:	True
			Verbose:	True
			ReadableABC:	False
			ReuseUniqueNodes:	True
			Fusion:	False
	Module
		Name:	iTasks.UI.Layout.Default
		Dir:	{Application}/lib/iTasks
		Compiler
			NeverMemoryProfile:	False
			NeverTimeProfile:	False
			StrictnessAnalysis:	True
			ListTypes:	StrictExportTypes
			ListAttributes:	True
			Warnings:	True
			Verbose:	True
			ReadableABC:	False
			ReuseUniqueNodes:	True
			Fusion:	False
	Module
		Name:	iTasks.UI.Prompt
		Dir:	{Application}/lib/iTasks
		Compiler
			NeverMemoryProfile:	False
			NeverTimeProfile:	False
			StrictnessAnalysis:	True
			ListTypes:	StrictExportTypes
			ListAttributes:	True
			Warnings:	True
			Verbose:	True
			ReadableABC:	False
			ReuseUniqueNodes:	True
			Fusion:	False
	Module
		Name:	iTasks.UI.Tune
		Dir:	{Application}/lib/iTasks
		Compiler
			NeverMemoryProfile:	False
			NeverTimeProfile:	False
			StrictnessAnalysis:	True
			ListTypes:	StrictExportTypes
			ListAttributes:	True
			Warnings:	True
			Verbose:	True
			ReadableABC:	False
			ReuseUniqueNodes:	True
			Fusion:	False
	Module
		Name:	iTasks.WF.Combinators.Common
		Dir:	{Application}/lib/iTasks
		Compiler
			NeverMemoryProfile:	False
			NeverTimeProfile:	False
			StrictnessAnalysis:	True
			ListTypes:	StrictExportTypes
			ListAttributes:	True
			Warnings:	True
			Verbose:	True
			ReadableABC:	False
			ReuseUniqueNodes:	True
			Fusion:	False
	Module
		Name:	iTasks.WF.Combinators.Core
		Dir:	{Application}/lib/iTasks
		Compiler
			NeverMemoryProfile:	False
			NeverTimeProfile:	False
			StrictnessAnalysis:	True
			ListTypes:	StrictExportTypes
			ListAttributes:	True
			Warnings:	True
			Verbose:	True
			ReadableABC:	False
			ReuseUniqueNodes:	True
			Fusion:	False
	Module
		Name:	iTasks.WF.Combinators.Overloaded
		Dir:	{Application}/lib/iTasks
		Compiler
			NeverMemoryProfile:	False
			NeverTimeProfile:	False
			StrictnessAnalysis:	True
			ListTypes:	StrictExportTypes
			ListAttributes:	True
			Warnings:	True
			Verbose:	True
			ReadableABC:	False
			ReuseUniqueNodes:	True
			Fusion:	False
	Module
		Name:	iTasks.WF.Combinators.SDS
		Dir:	{Application}/lib/iTasks
		Compiler
			NeverMemoryProfile:	False
			NeverTimeProfile:	False
			StrictnessAnalysis:	True
			ListTypes:	StrictExportTypes
			ListAttributes:	True
			Warnings:	True
			Verbose:	True
			ReadableABC:	False
			ReuseUniqueNodes:	True
			Fusion:	False
	Module
		Name:	iTasks.WF.Combinators.Tune
		Dir:	{Application}/lib/iTasks
		Compiler
			NeverMemoryProfile:	False
			NeverTimeProfile:	False
			StrictnessAnalysis:	True
			ListTypes:	StrictExportTypes
			ListAttributes:	True
			Warnings:	True
			Verbose:	True
			ReadableABC:	False
			ReuseUniqueNodes:	True
			Fusion:	False
	Module
		Name:	iTasks.WF.Definition
		Dir:	{Application}/lib/iTasks
		Compiler
			NeverMemoryProfile:	False
			NeverTimeProfile:	False
			StrictnessAnalysis:	True
			ListTypes:	StrictExportTypes
			ListAttributes:	True
			Warnings:	True
			Verbose:	True
			ReadableABC:	False
			ReuseUniqueNodes:	True
			Fusion:	False
	Module
		Name:	iTasks.WF.Derives
		Dir:	{Application}/lib/iTasks
		Compiler
			NeverMemoryProfile:	False
			NeverTimeProfile:	False
			StrictnessAnalysis:	True
			ListTypes:	StrictExportTypes
			ListAttributes:	True
			Warnings:	True
			Verbose:	True
			ReadableABC:	False
			ReuseUniqueNodes:	True
			Fusion:	False
	Module
		Name:	iTasks.WF.Tasks.Core
		Dir:	{Application}/lib/iTasks
		Compiler
			NeverMemoryProfile:	False
			NeverTimeProfile:	False
			StrictnessAnalysis:	True
			ListTypes:	StrictExportTypes
			ListAttributes:	True
			Warnings:	True
			Verbose:	True
			ReadableABC:	False
			ReuseUniqueNodes:	True
			Fusion:	False
	Module
		Name:	iTasks.WF.Tasks.IO
		Dir:	{Application}/lib/iTasks
		Compiler
			NeverMemoryProfile:	False
			NeverTimeProfile:	False
			StrictnessAnalysis:	True
			ListTypes:	StrictExportTypes
			ListAttributes:	True
			Warnings:	True
			Verbose:	True
			ReadableABC:	False
			ReuseUniqueNodes:	True
			Fusion:	False
	Module
		Name:	iTasks.WF.Tasks.Interaction
		Dir:	{Application}/lib/iTasks
		Compiler
			NeverMemoryProfile:	False
			NeverTimeProfile:	False
			StrictnessAnalysis:	True
			ListTypes:	StrictExportTypes
			ListAttributes:	True
			Warnings:	True
			Verbose:	True
			ReadableABC:	False
			ReuseUniqueNodes:	True
			Fusion:	False
	Module
		Name:	iTasks.WF.Tasks.SDS
		Dir:	{Application}/lib/iTasks
		Compiler
			NeverMemoryProfile:	False
			NeverTimeProfile:	False
			StrictnessAnalysis:	True
			ListTypes:	StrictExportTypes
			ListAttributes:	True
			Warnings:	True
			Verbose:	True
			ReadableABC:	False
			ReuseUniqueNodes:	True
			Fusion:	False
	Module
		Name:	iTasks.WF.Tasks.System
		Dir:	{Application}/lib/iTasks
		Compiler
			NeverMemoryProfile:	False
			NeverTimeProfile:	False
			StrictnessAnalysis:	True
			ListTypes:	StrictExportTypes
			ListAttributes:	True
			Warnings:	True
			Verbose:	True
			ReadableABC:	False
			ReuseUniqueNodes:	True
			Fusion:	False
